Deciphering Life: One Bit at a Time - Climate Data to Analyze Days by Low Temperatures
…
library(lubridate)
library(ggplot2)
theme_set(cowplot::theme_cowplot())

bluegrass_df = tibble::as_tibble(temp_data$data)
names(bluegrass_df) = c("date", "max", "min")
bluegrass_df = bluegrass_df |>
  dplyr::mutate(date2 = lubridate::as_date(date),
                year = lubridate::year(date2),
                month = lubridate::month(date2),
                ym = paste0(year, "-", month))
bluegrass_df

# A tibble: 19,352 × 7
   date       max   min   date2       year month ym    
   <chr>      <chr> <chr> <date>     <dbl> <dbl> <chr> 
 1 1970-01-01 33    23    1970-01-01  1970     1 1970-1
 2 1970-01-02 34    23    1970-01-02  1970     1 1970-1
 3 1970-01-03 26    15    1970-01-03  1970     1 1970-1
 4 1970-01-04 35    14    1970-01-04  1970     1 1970-1
 5 1970-01-05 44    23    1970-01-05  1970     1 1970-1
 6 1970-01-06 34    11    1970-01-06  1970     1 1970-1
 7 1970-01-07 11    -6    1970-01-07  1970     1 1970-1
 8 1970-01-08 3     -5    1970-01-08  1970     1 1970-1
 9 1970-01-09 8     -3    1970-01-09  1970     1 1970-1
10 1970-01-10 18    -6    1970-01-10  1970     1 1970-1
# … with 19,342 more rows
…
